sv/struct/dump.vcd
$version Generated by VerilatedVcd $end
$timescale 1ns $end
 $scope module top $end
  $var wire 40 # t [39:0] $end
 $upscope $end
$enddefinitions $end


#0
b0000000000000000000000000000000000000000 #
#1
b0100000100000000000000000000000000000000 #
#10
b0100000100000000000000000000000000000001 #
#11
b0100000111111111111111100111100101100000 #
#20
b0100000111111111111111100111100101100001 #
#30
b0100000111111111111111100111100101100010 #
#40
b0100000111111111111111100111100101100011 #
#50
b0100000111111111111111100111100101100100 #
#60
b0100000111111111111111100111100101100101 #
#70
b0100000111111111111111100111100101100110 #
#80
b0100000111111111111111100111100101100111 #
#90
b0100000111111111111111100111100101101000 #
#100
b0100000111111111111111100111100101101001 #
#110
b0100000111111111111111100111100101101010 #
#120
b0100000111111111111111100111100101101011 #
#130
b0100000111111111111111100111100101101100 #
#140
b0100000111111111111111100111100101101101 #
#150
b0100000111111111111111100111100101101110 #
#160
b0100000111111111111111100111100101101111 #
#170
b0100000111111111111111100111100101110000 #
#180
b0100000111111111111111100111100101110001 #
#190
b0100000111111111111111100111100101110010 #
#200
b0100000111111111111111100111100101110011 #
#210
b0100000111111111111111100111100101110100 #
#220
b0100000111111111111111100111100101110101 #
#230
b0100000111111111111111100111100101110110 #
#240
b0100000111111111111111100111100101110111 #
#250
b0100000111111111111111100111100101111000 #
#260
b0100000111111111111111100111100101111001 #
#270
b0100000111111111111111100111100101111010 #
#280
b0100000111111111111111100111100101111011 #
#290
b0100000111111111111111100111100101111100 #
#300
b0100000111111111111111100111100101111101 #
#310
b0100000111111111111111100111100101111110 #
